MYCPU/REGSMD/simulation/qsim/REGSMD.msim.vcd
$comment
	File created using the following command:
		vcd file REGSMD.msim.vcd -direction
$end
$date
	Fri Dec 24 20:19:07 2021
$end
$version
	ModelSim Version 10.5b
$end
$timescale
	1ps
$end

$scope module REGSMD_vlg_vec_tst $end
$var reg 1 ! LDAR $end
$var reg 1 " LDIR $end
$var reg 1 # LDPC $end
$var reg 1 $ LED_B $end
$var reg 1 % LOAD $end
$var reg 1 & PC_B $end
$var reg 8 ' RAM [7:0] $end
$var reg 1 ( RAM_B $end
$var reg 1 ) RST $end
$var reg 1 * T2 $end
$var reg 1 + T4 $end
$var wire 1 , AR [7] $end
$var wire 1 - AR [6] $end
$var wire 1 . AR [5] $end
$var wire 1 / AR [4] $end
$var wire 1 0 AR [3] $end
$var wire 1 1 AR [2] $end
$var wire 1 2 AR [1] $end
$var wire 1 3 AR [0] $end
$var wire 1 4 BUS [7] $end
$var wire 1 5 BUS [6] $end
$var wire 1 6 BUS [5] $end
$var wire 1 7 BUS [4] $end
$var wire 1 8 BUS [3] $end
$var wire 1 9 BUS [2] $end
$var wire 1 : BUS [1] $end
$var wire 1 ; BUS [0] $end
$var wire 1 < DOUT [7] $end
$var wire 1 = DOUT [6] $end
$var wire 1 > DOUT [5] $end
$var wire 1 ? DOUT [4] $end
$var wire 1 @ DOUT [3] $end
$var wire 1 A DOUT [2] $end
$var wire 1 B DOUT [1] $end
$var wire 1 C DOUT [0] $end
$var wire 1 D IR [7] $end
$var wire 1 E IR [6] $end
$var wire 1 F IR [5] $end
$var wire 1 G IR [4] $end
$var wire 1 H IR [3] $end
$var wire 1 I IR [2] $end
$var wire 1 J IR [1] $end
$var wire 1 K IR [0] $end
$var wire 1 L PC [7] $end
$var wire 1 M PC [6] $end
$var wire 1 N PC [5] $end
$var wire 1 O PC [4] $end
$var wire 1 P PC [3] $end
$var wire 1 Q PC [2] $end
$var wire 1 R PC [1] $end
$var wire 1 S PC [0] $end

$scope module i1 $end
$var wire 1 T gnd $end
$var wire 1 U vcc $end
$var wire 1 V unknown $end
$var tri1 1 W devclrn $end
$var tri1 1 X devpor $end
$var tri1 1 Y devoe $end
$var wire 1 Z BUS[7]~output_o $end
$var wire 1 [ BUS[6]~output_o $end
$var wire 1 \ BUS[5]~output_o $end
$var wire 1 ] BUS[4]~output_o $end
$var wire 1 ^ BUS[3]~output_o $end
$var wire 1 _ BUS[2]~output_o $end
$var wire 1 ` BUS[1]~output_o $end
$var wire 1 a BUS[0]~output_o $end
$var wire 1 b AR[7]~output_o $end
$var wire 1 c AR[6]~output_o $end
$var wire 1 d AR[5]~output_o $end
$var wire 1 e AR[4]~output_o $end
$var wire 1 f AR[3]~output_o $end
$var wire 1 g AR[2]~output_o $end
$var wire 1 h AR[1]~output_o $end
$var wire 1 i AR[0]~output_o $end
$var wire 1 j PC[7]~output_o $end
$var wire 1 k PC[6]~output_o $end
$var wire 1 l PC[5]~output_o $end
$var wire 1 m PC[4]~output_o $end
$var wire 1 n PC[3]~output_o $end
$var wire 1 o PC[2]~output_o $end
$var wire 1 p PC[1]~output_o $end
$var wire 1 q PC[0]~output_o $end
$var wire 1 r DOUT[7]~output_o $end
$var wire 1 s DOUT[6]~output_o $end
$var wire 1 t DOUT[5]~output_o $end
$var wire 1 u DOUT[4]~output_o $end
$var wire 1 v DOUT[3]~output_o $end
$var wire 1 w DOUT[2]~output_o $end
$var wire 1 x DOUT[1]~output_o $end
$var wire 1 y DOUT[0]~output_o $end
$var wire 1 z IR[7]~output_o $end
$var wire 1 { IR[6]~output_o $end
$var wire 1 | IR[5]~output_o $end
$var wire 1 } IR[4]~output_o $end
$var wire 1 ~ IR[3]~output_o $end
$var wire 1 !! IR[2]~output_o $end
$var wire 1 "! IR[1]~output_o $end
$var wire 1 #! IR[0]~output_o $end
$var wire 1 $! RAM_B~input_o $end
$var wire 1 %! PC_B~input_o $end
$var wire 1 &! T4~input_o $end
$var wire 1 '! LDPC~input_o $end
$var wire 1 (! inst1~combout $end
$var wire 1 )! inst1~clkctrl_outclk $end
$var wire 1 *! LOAD~input_o $end
$var wire 1 +! RAM[6]~input_o $end
$var wire 1 ,! inst11|lpm_bustri_component|dout[6]~9_combout $end
$var wire 1 -! RAM[5]~input_o $end
$var wire 1 .! inst11|lpm_bustri_component|dout[5]~10_combout $end
$var wire 1 /! RAM[4]~input_o $end
$var wire 1 0! inst11|lpm_bustri_component|dout[4]~11_combout $end
$var wire 1 1! RAM[3]~input_o $end
$var wire 1 2! inst11|lpm_bustri_component|dout[3]~12_combout $end
$var wire 1 3! RAM[2]~input_o $end
$var wire 1 4! inst11|lpm_bustri_component|dout[2]~13_combout $end
$var wire 1 5! RAM[1]~input_o $end
$var wire 1 6! inst11|lpm_bustri_component|dout[1]~14_combout $end
$var wire 1 7! inst3|Add0~0_combout $end
$var wire 1 8! RAM[0]~input_o $end
$var wire 1 9! inst11|lpm_bustri_component|dout[0]~15_combout $end
$var wire 1 :! inst3|Add0~23_combout $end
$var wire 1 ;! RST~input_o $end
$var wire 1 <! inst3|Add0~1 $end
$var wire 1 =! inst3|Add0~2_combout $end
$var wire 1 >! inst3|Add0~22_combout $end
$var wire 1 ?! inst3|Add0~3 $end
$var wire 1 @! inst3|Add0~4_combout $end
$var wire 1 A! inst3|Add0~21_combout $end
$var wire 1 B! inst3|Add0~5 $end
$var wire 1 C! inst3|Add0~6_combout $end
$var wire 1 D! inst3|Add0~20_combout $end
$var wire 1 E! inst3|Add0~7 $end
$var wire 1 F! inst3|Add0~8_combout $end
$var wire 1 G! inst3|Add0~19_combout $end
$var wire 1 H! inst3|Add0~9 $end
$var wire 1 I! inst3|Add0~10_combout $end
$var wire 1 J! inst3|Add0~18_combout $end
$var wire 1 K! inst3|Add0~11 $end
$var wire 1 L! inst3|Add0~12_combout $end
$var wire 1 M! inst3|Add0~17_combout $end
$var wire 1 N! inst3|Add0~13 $end
$var wire 1 O! inst3|Add0~14_combout $end
$var wire 1 P! inst3|Add0~16_combout $end
$var wire 1 Q! RAM[7]~input_o $end
$var wire 1 R! inst11|lpm_bustri_component|dout[7]~8_combout $end
$var wire 1 S! inst11|lpm_bustri_component|dout[7]~16_combout $end
$var wire 1 T! T2~input_o $end
$var wire 1 U! LDAR~input_o $end
$var wire 1 V! inst4~combout $end
$var wire 1 W! inst4~clkctrl_outclk $end
$var wire 1 X! LED_B~input_o $end
$var wire 1 Y! inst10~combout $end
$var wire 1 Z! inst10~clkctrl_outclk $end
$var wire 1 [! LDIR~input_o $end
$var wire 1 \! inst5~combout $end
$var wire 1 ]! inst5~clkctrl_outclk $end
$var wire 1 ^! inst9|latches [7] $end
$var wire 1 _! inst9|latches [6] $end
$var wire 1 `! inst9|latches [5] $end
$var wire 1 a! inst9|latches [4] $end
$var wire 1 b! inst9|latches [3] $end
$var wire 1 c! inst9|latches [2] $end
$var wire 1 d! inst9|latches [1] $end
$var wire 1 e! inst9|latches [0] $end
$var wire 1 f! inst3|s [7] $end
$var wire 1 g! inst3|s [6] $end
$var wire 1 h! inst3|s [5] $end
$var wire 1 i! inst3|s [4] $end
$var wire 1 j! inst3|s [3] $end
$var wire 1 k! inst3|s [2] $end
$var wire 1 l! inst3|s [1] $end
$var wire 1 m! inst3|s [0] $end
$var wire 1 n! inst6|latches [7] $end
$var wire 1 o! inst6|latches [6] $end
$var wire 1 p! inst6|latches [5] $end
$var wire 1 q! inst6|latches [4] $end
$var wire 1 r! inst6|latches [3] $end
$var wire 1 s! inst6|latches [2] $end
$var wire 1 t! inst6|latches [1] $end
$var wire 1 u! inst6|latches [0] $end
$var wire 1 v! inst7|latches [7] $end
$var wire 1 w! inst7|latches [6] $end
$var wire 1 x! inst7|latches [5] $end
$var wire 1 y! inst7|latches [4] $end
$var wire 1 z! inst7|latches [3] $end
$var wire 1 {! inst7|latches [2] $end
$var wire 1 |! inst7|latches [1] $end
$var wire 1 }! inst7|latches [0] $end
$upscope $end
$upscope $end
$enddefinitions $end
#0
$dumpvars
0!
0"
0#
0$
0%
0&
b100101 '
0(
0)
0*
0+
x3
x2
x1
x0
x/
x.
x-
x,
z;
z:
z9
z8
z7
z6
z5
z4
xC
xB
xA
x@
x?
x>
x=
x<
xK
xJ
xI
xH
xG
xF
xE
xD
0S
0R
0Q
0P
0O
0N
0M
0L
0T
1U
xV
1W
1X
1Y
zZ
z[
z\
z]
z^
z_
z`
za
xb
xc
xd
xe
xf
xg
xh
xi
0j
0k
0l
0m
0n
0o
0p
0q
xr
xs
xt
xu
xv
xw
xx
xy
xz
x{
x|
x}
x~
x!!
x"!
x#!
0$!
0%!
0&!
0'!
0(!
0)!
0*!
0+!
1,!
1-!
1.!
0/!
10!
01!
12!
13!
14!
05!
16!
17!
18!
19!
1:!
0;!
0<!
0=!
0>!
1?!
0@!
0A!
0B!
0C!
0D!
1E!
0F!
0G!
0H!
0I!
0J!
1K!
0L!
0M!
0N!
0O!
0P!
0Q!
1R!
0S!
0T!
0U!
0V!
0W!
0X!
0Y!
0Z!
0[!
0\!
0]!
xe!
xd!
xc!
xb!
xa!
x`!
x_!
x^!
0m!
0l!
0k!
0j!
0i!
0h!
0g!
0f!
xu!
xt!
xs!
xr!
xq!
xp!
xo!
xn!
x}!
x|!
x{!
xz!
xy!
xx!
xw!
xv!
$end
#10000
1)
1;!
0e!
0d!
0c!
0b!
0a!
0`!
0_!
0^!
0}!
0|!
0{!
0z!
0y!
0x!
0w!
0v!
0u!
0t!
0s!
0r!
0q!
0p!
0o!
0n!
0b
0c
0d
0e
0f
0g
0h
0i
0r
0s
0t
0u
0v
0w
0x
0y
0z
0{
0|
0}
0~
0!!
0"!
0#!
0K
0J
0I
0H
0G
0F
0E
0D
0C
0B
0A
0@
0?
0>
0=
0<
03
02
01
00
0/
0.
0-
0,
#20000
0)
0;!
#30000
1#
1'!
#40000
1+
1&!
1(!
1)!
1m!
1q
1<!
07!
1S
1=!
0:!
1>!
#50000
0+
0&!
0(!
0)!
#60000
0#
0'!
#180000
1"
1[!
#190000
1(
1*
1$!
1T!
1\!
1]!
1S!
0R!
06!
02!
00!
0,!
0Z
0[
1\
0]
0^
1_
0`
1a
1;
0:
19
08
07
16
05
04
1e!
1c!
1`!
1|
1!!
1#!
1K
1I
1F
#200000
0*
0T!
0\!
0]!
#210000
0"
0[!
#240000
1*
1T!
#250000
1&
1!
0(
0*
1%!
1U!
0$!
0T!
04!
0.!
0\
0_
09
06
#270000
b10100101 '
b10100100 '
1*
08!
1Q!
1T!
1V!
1W!
1u!
1i
13
#280000
0*
0T!
0V!
0W!
#290000
0&
0%!
0S!
1R!
16!
14!
12!
10!
1.!
1,!
zZ
z[
z\
z]
z^
z_
z`
za
z;
z:
z9
z8
z7
z6
z5
z4
#300000
0!
0U!
#390000
1#
1'!
#400000
1+
1*
1&!
1T!
1(!
1)!
1l!
0m!
0q
1p
0?!
0=!
0<!
17!
1R
0S
1@!
1?!
1=!
0>!
1:!
0@!
1A!
1>!
0A!
#410000
0+
0*
0&!
0T!
0(!
0)!
#420000
0#
0'!
#510000
b10100110 '
b100110 '
15!
0Q!
#520000
1&
1!
1%!
1U!
1S!
0R!
09!
04!
02!
00!
0.!
0,!
0Z
0[
0\
0]
0^
0_
1`
0a
0;
1:
09
08
07
06
05
04
#530000
1*
1T!
1V!
1W!
0u!
1t!
1h
0i
03
12
#540000
1(
0*
1$!
0T!
0V!
0W!
#550000
1"
0&
0!
1[!
0%!
0U!
14!
1.!
1\
1_
19
16
#560000
1*
1T!
1\!
1]!
0e!
1d!
1"!
0#!
0K
1J
#570000
0*
0T!
0\!
0]!
#580000
0"
0[!
#600000
1&
1!
1*
1%!
1U!
1T!
1V!
1W!
04!
0.!
0\
0_
09
06
#610000
0(
0*
0$!
0T!
0V!
0W!
#620000
0!
0U!
#630000
0&
0%!
0S!
1R!
19!
14!
12!
10!
1.!
1,!
zZ
z[
z\
z]
z^
z_
z`
za
z;
z:
z9
z8
z7
z6
z5
z4
#730000
1#
1'!
#750000
b100111 '
1+
18!
1&!
1(!
1)!
1m!
1q
1<!
07!
1S
0?!
0=!
0:!
1@!
0>!
1A!
#760000
0+
0&!
0(!
0)!
#780000
0#
0'!
#820000
1%
1#
1*!
1'!
1P!
1M!
1J!
1G!
1D!
1>!
1:!
#840000
1+
1&!
1(!
1)!
1f!
1g!
1h!
1i!
1j!
1k!
1o
1n
1m
1l
1k
1j
1O!
1L!
1I!
1F!
1C!
1B!
0@!
1L
1M
1N
1O
1P
1Q
0E!
0C!
1H!
0F!
0K!
0I!
1N!
0L!
0O!
#860000
0+
0&!
0(!
0)!
#880000
0#
0'!
#900000
0%
0*!
0P!
0M!
0J!
0G!
0D!
0A!
0>!
0:!
#980000
b1100111 '
b1110111 '
b1111111 '
b1111011 '
b1111001 '
b1111000 '
08!
05!
03!
11!
1/!
1+!
#1020000
1*
1!
1T!
1U!
1V!
1W!
1u!
1s!
1r!
1q!
1p!
1o!
1n!
1b
1c
1d
1e
1f
1g
1i
13
11
10
1/
1.
1-
1,
#1040000
1&
0*
1%!
0T!
0V!
0W!
1S!
1Z
1[
1\
1]
1^
1_
1`
1a
1;
1:
19
18
17
16
15
14
#1060000
0!
0U!
#1080000
1(
1*
1!
1$!
1T!
1U!
1V!
1W!
0R!
09!
06!
04!
0_
0`
0a
0Z
04
0;
0:
09
0u!
0t!
0s!
0n!
0b
0g
0h
0i
03
02
01
0,
#1100000
1"
0*
1[!
0T!
0V!
0W!
#1120000
0&
0%!
#1140000
0(
0!
1*
0$!
0U!
1T!
1\!
1]!
0S!
1R!
19!
16!
14!
zZ
z[
z\
z]
z^
z_
z`
za
z;
z:
z9
z8
z7
z6
z5
z4
1e!
1b!
1a!
1_!
1^!
1z
1{
1}
1~
1#!
1K
1H
1G
1E
1D
#1160000
0*
0T!
0\!
0]!
#1180000
1#
0"
1'!
0[!
#1200000
1+
1&!
1(!
1)!
0f!
0g!
0h!
0i!
0j!
0k!
0l!
0m!
0q
0p
0o
0n
0m
0l
0k
0j
1O!
0N!
1L!
1K!
1I!
0H!
1F!
1E!
1C!
0B!
1@!
1?!
1=!
0<!
17!
0L
0M
0N
0O
0P
0Q
0R
0S
0O!
0L!
0I!
0F!
0C!
0@!
0=!
1P!
1M!
1J!
1G!
1D!
1A!
1>!
1:!
0P!
0M!
0J!
0G!
0D!
0A!
0>!
#1220000
0+
0&!
0(!
0)!
#1240000
0#
0'!
#1260000
1&
1!
1%!
1U!
1S!
0R!
09!
06!
04!
02!
00!
0.!
0,!
0Z
0[
0\
0]
0^
0_
0`
0a
0;
0:
09
08
07
06
05
04
#1280000
b1011000 '
b11011000 '
b10011000 '
b10010000 '
b10010001 '
1*
18!
01!
0-!
0+!
1Q!
1T!
1V!
1W!
0r!
0q!
0p!
0o!
0c
0d
0e
0f
00
0/
0.
0-
#1300000
0*
0T!
0V!
0W!
#1320000
0&
0%!
0S!
1R!
19!
16!
14!
12!
10!
1.!
1,!
zZ
z[
z\
z]
z^
z_
z`
za
z;
z:
z9
z8
z7
z6
z5
z4
#1340000
0!
0U!
#1400000
1$
1(
1X!
1$!
1S!
06!
04!
02!
0.!
0,!
1Z
0[
0\
1]
0^
0_
0`
1a
1;
0:
09
08
17
06
05
14
#1420000
1*
1T!
1Y!
1Z!
1}!
1y!
1v!
1r
1u
1y
1C
1?
1<
#1460000
0*
0T!
0Y!
0Z!
#1480000
0(
0$!
0S!
16!
14!
12!
1.!
1,!
zZ
z[
z\
z]
z^
z_
z`
za
z;
z:
z9
z8
z7
z6
z5
z4
#1500000
0$
0X!
#1520000
1#
1'!
#1540000
1+
1&!
1(!
1)!
1m!
1q
1<!
07!
1S
1=!
0:!
1>!
#1560000
0+
0&!
0(!
0)!
#1580000
b10000001 '
b1 '
b0 '
0#
08!
0/!
0Q!
0'!
